<?xml version="1.0" encoding="UTF-8" standalone="no"?>
<svg
   id="Ebene_1"
   data-name="Ebene 1"
   viewBox="0 0 24 24"
   version="1.1"
   sodipodi:docname="grouptool_1_24x24.svg"
   inkscape:version="1.4 (86a8ad7, 2024-10-11)"
   xmlns:inkscape="http://www.inkscape.org/namespaces/inkscape"
   xmlns:sodipodi="http://sodipodi.sourceforge.net/DTD/sodipodi-0.dtd"
   xmlns="http://www.w3.org/2000/svg"
   xmlns:svg="http://www.w3.org/2000/svg">
  <defs
     id="defs6" />
  <sodipodi:namedview
     id="namedview6"
     pagecolor="#ffffff"
     bordercolor="#666666"
     borderopacity="1.0"
     inkscape:showpageshadow="2"
     inkscape:pageopacity="0.0"
     inkscape:pagecheckerboard="0"
     inkscape:deskcolor="#d1d1d1"
     inkscape:zoom="32.625"
     inkscape:cx="12"
     inkscape:cy="12"
     inkscape:window-width="1920"
     inkscape:window-height="1001"
     inkscape:window-x="-9"
     inkscape:window-y="-9"
     inkscape:window-maximized="1"
     inkscape:current-layer="Ebene_1" />
  <g
     id="g7"
     transform="translate(-4,-3.535)">
    <path
       d="M 11.15,14.95 C 10.7,14.95 10.26,14.81 9.89,14.54 9.42,14.2 9.11,13.7 9.01,13.13 8.92,12.56 9.05,11.99 9.39,11.51 c 0.34,-0.47 0.84,-0.78 1.41,-0.88 0.62,-0.1 1.25,0.07 1.74,0.47 0.17,0.14 0.19,0.39 0.05,0.56 -0.14,0.17 -0.39,0.19 -0.56,0.05 -0.31,-0.26 -0.71,-0.36 -1.1,-0.3 -0.36,0.06 -0.68,0.26 -0.9,0.56 -0.21,0.3 -0.3,0.66 -0.24,1.03 0.06,0.36 0.26,0.68 0.56,0.89 0.3,0.21 0.66,0.3 1.03,0.24 0.34,-0.06 0.65,-0.24 0.86,-0.51 0.13,-0.17 0.38,-0.2 0.56,-0.07 0.17,0.13 0.2,0.38 0.07,0.56 -0.34,0.43 -0.82,0.72 -1.36,0.81 -0.12,0.02 -0.24,0.03 -0.36,0.03 z"
       id="path1" />
    <path
       d="m 8.78,19.73 h -1 c -0.71,0 -1.28,-0.57 -1.28,-1.28 0,-1.71 1.39,-3.1 3.1,-3.1 h 1.92 c 0.22,0 0.4,0.18 0.4,0.4 0,0.22 -0.18,0.4 -0.4,0.4 H 9.6 c -1.27,0 -2.31,1.04 -2.31,2.31 0,0.27 0.22,0.49 0.49,0.49 h 1 c 0.22,0 0.4,0.18 0.4,0.4 0,0.22 -0.18,0.4 -0.4,0.4 z"
       id="path2" />
    <path
       d="m 20.85,14.95 c 0.45,0 0.89,-0.14 1.26,-0.41 0.47,-0.34 0.78,-0.84 0.88,-1.41 0.09,-0.57 -0.04,-1.14 -0.38,-1.62 -0.34,-0.47 -0.84,-0.78 -1.41,-0.88 -0.62,-0.1 -1.25,0.07 -1.74,0.47 -0.17,0.14 -0.19,0.39 -0.05,0.56 0.14,0.17 0.39,0.19 0.56,0.05 0.31,-0.26 0.71,-0.36 1.1,-0.3 0.36,0.06 0.68,0.26 0.9,0.56 0.21,0.3 0.3,0.66 0.24,1.03 -0.06,0.36 -0.26,0.68 -0.56,0.89 -0.3,0.21 -0.66,0.3 -1.03,0.24 -0.34,-0.06 -0.65,-0.24 -0.86,-0.51 -0.13,-0.17 -0.38,-0.2 -0.56,-0.07 -0.17,0.13 -0.2,0.38 -0.07,0.56 0.34,0.43 0.82,0.72 1.36,0.81 0.12,0.02 0.24,0.03 0.36,0.03 z"
       id="path3" />
    <path
       d="m 23.22,19.73 h 1 c 0.71,0 1.28,-0.57 1.28,-1.28 0,-1.71 -1.39,-3.1 -3.1,-3.1 h -1.92 c -0.22,0 -0.4,0.18 -0.4,0.4 0,0.22 0.18,0.4 0.4,0.4 h 1.92 c 1.27,0 2.31,1.04 2.31,2.31 0,0.27 -0.22,0.49 -0.49,0.49 h -1 c -0.22,0 -0.4,0.18 -0.4,0.4 0,0.22 0.18,0.4 0.4,0.4 z"
       id="path4" />
    <g
       id="g6">
      <path
         d="m 16,10.44 c 1.03,0 1.87,0.84 1.87,1.87 0,1.03 -0.84,1.87 -1.87,1.87 -1.03,0 -1.87,-0.84 -1.87,-1.87 0,-1.03 0.84,-1.87 1.87,-1.87 m 0,-1 c -1.58,0 -2.87,1.28 -2.87,2.87 0,1.59 1.28,2.87 2.87,2.87 1.59,0 2.87,-1.28 2.87,-2.87 0,-1.59 -1.28,-2.87 -2.87,-2.87 z"
         id="path5" />
      <path
         d="m 17.57,16.76 c 1.89,0 3.42,1.54 3.42,3.42 0,0.25 -0.2,0.45 -0.45,0.45 h -9.09 c -0.25,0 -0.45,-0.2 -0.45,-0.45 0,-1.89 1.54,-3.42 3.42,-3.42 h 3.13 m 0.02,-1 h -3.13 c -2.44,0 -4.42,1.98 -4.42,4.42 0,0.8 0.65,1.45 1.45,1.45 h 9.09 c 0.8,0 1.45,-0.65 1.45,-1.45 0,-2.44 -1.98,-4.42 -4.42,-4.42 v 0 z"
         id="path6" />
    </g>
  </g>
</svg>
